{
    "#": "This config is included by builds and is meant for the dev server",
    "app": {
        "port": 3000,
        "host": "0.0.0.0",
        "environment": "development",
        "session": {
            "type": "postgres",
            "opts": {
                "cookie": {"secure": false, "maxAge": 86400000 },
                "secret": "dsmA6ZwbrtddFRiuauuHPq?RViTwCqba",
                "rolling": true,
                "tablename": "sessions",
                "resave": false,
                "saveUninitialized": true
            }
        }
    },
    "db": {
        "host": "localhost",
        "user": "postgres",
        "password": "",
        "database": "ctk_dev",
        "charset": "utf8",
        "client": "pg"
    },
    "s3": {
        "uploadBucket": "coachco",
        "uploadFolder": "assets",
        "defaultExpires": 900
    },  
    "mail": {
        "host": "mail.newviewanalytics.com",
        "port": 465,
        "secure": true,
        "user": "coachco@newviewanalytics.com",
        "pass": "CoachCo1!",
        "replyaddress": "noreply@newviewanalytics.com"
    },  
    "brand": {
        "company": "CoachCo",
        "logo": "https://s3.amazonaws.com/coachco/assets/Stock/DefaultLogo.png",
        "welcomeEmail": [
            "<p>%BRAND-EMAIL-LOGO%</p>",
            "<p>Welcome to %BRAND-COMPANY%, %CLIENT-FIRSTNAME%!</p>",
            "<p>Before you begin, you need accept your invitation and select a username and password. Your username needs to be all lower case letters and may contain numbers as well. You can accept your invitation by clicking the link below or at <a href='%ACCEPT-URL%'>%ACCEPT-URL%</a>&nbsp;and entering the&nbsp;email and invitation code below.</p>",
            "<p>Thank you!</p>",
            "<p><strong>User Email</strong>&nbsp;%CLIENT-EMAIL%</p>", 
            "<p><strong>Invitation Code</strong>&nbsp;%INVITE-CODE%</p>", 
            "<p><strong>Invitation Link</strong>&nbsp;<a href=''%ACCEPT-URL%?email=%CLIENT-EMAIL%&amp;invite=%INVITE-CODE%''>%ACCEPT-URL%?email=%CLIENT-EMAIL%&amp;invite=%INVITE-CODE%</a></p>"
        ],
        "assessmentNotificationEmail": [ 
            "<p>%BRAND-EMAIL-LOGO%</p>", 
            "<p>Hello %CLIENT-FIRSTNAME%!</p>", 
            "<p>I have assigned a new assessment that I would like you to complete.  Please log in at your convience and complete it.</p>",
            "<p>Thank you!</p>",
            "<p>%COACH-FIRSTNAME%&nbsp;%COACH-LASTNAME%</p>", 
            "<p><strong>Login at </strong>&nbsp;<a href=''%BASE-URL%''>%BASE-URL%</a></p>"
        ]
    },
    "testMode": false
}